{"href":"https://api.tiigsi.com/courses/catalog","size":6,"page":0,"totalPages":12,"totalItems":74,"items":[{"href":null,"id":355,"title":"Capcut Mobile Video Editing","categoryId":1,"slug":"capcut-mobile-video-editing-355","price":10.0000,"publishDate":"2022-04-20T14:00:15.111361Z","image":{"href":"/pictures/c355-17042022.png","rel":["file"]},"status":1,"shortSummary":"Baro Muuqal samaynta adigoo isticmaalaya Telephone kaaga gacanta ee uu ku jiro Andriod ama IOS-ku!","enrollments":9,"ratings":{"count":0,"stars":0.0},"filterables":[]},{"href":null,"id":354,"title":"Database Design and Implementation Bootcamp (Ongoing)","categoryId":3,"slug":"database-design-and-implementation-bootcamp-354","price":15.0000,"publishDate":"2022-04-16T11:11:12.140699Z","image":{"href":"/pictures/c354-16042022.png","rel":["file"]},"status":1,"shortSummary":"Noqo Database Developer aqoon u leh Samaynta Database Dhamaystiran kaasi oo lagu xidhi karo system kasta oo loo baahdo!","enrollments":1,"ratings":{"count":0,"stars":0.0},"filterables":[]},{"href":null,"id":349,"title":"Fundementals of Pharmacology II","categoryId":5,"slug":"fundementals-of-pharmacology-ii-349","price":10.0000,"publishDate":"2022-04-16T11:10:07.391087Z","image":{"href":"/pictures/c349-07042022.png","rel":["file"]},"status":1,"shortSummary":"Baro Fundamentals of Pharmacology II aqoon fiican u yeelo qaybaha Daawada iyo sida loo isticmaalo.","enrollments":5,"ratings":{"count":0,"stars":0.0},"filterables":[]},{"href":null,"id":347,"title":"Lumion Interior Design","categoryId":11,"slug":"lumion-interior-design-347","price":15.0000,"publishDate":"2022-04-09T08:44:01.777373Z","image":{"href":"/pictures/c347-28032022.png","rel":["file"]},"status":1,"shortSummary":"Barashada Lumion Interior Design oo course loogu talgalay Ardayda barata Architecture","enrollments":3,"ratings":{"count":0,"stars":0.0},"filterables":[]},{"href":null,"id":338,"title":"Python Fundamentals Bootcamp","categoryId":3,"slug":"python-fundamentals-bootcamp-338","price":15.0000,"publishDate":"2022-02-28T07:51:46.983555Z","image":{"href":"/pictures/c338-26022022.png","rel":["file"]},"status":1,"shortSummary":"Baro Python Fundamentals oo noqo Python Programmer awood u leh inuu dhiso Apps kala Duwan!","enrollments":16,"ratings":{"count":1,"stars":4.0},"filterables":[]},{"href":null,"id":339,"title":"Flutter Mobile App Development Bootcamp with Dart","categoryId":3,"slug":"flutter-mobile-app-development-bootcamp-with-dart-339","price":30.0000,"publishDate":"2022-02-27T08:54:22.722791Z","image":{"href":"/pictures/c339-27022022.png","rel":["file"]},"status":1,"shortSummary":" Noqoto Flutter Mobile App Developer! Baro sida loo dhiso Cross-Platform Mobile Apps!","enrollments":10,"ratings":{"count":0,"stars":0.0},"filterables":[]}],"count":0,"filterables":[]}