{"href":"https://api.tiigsi.com/courses/catalog","size":6,"page":0,"totalPages":12,"totalItems":74,"items":[{"href":null,"id":100,"title":"Advanced Graphic Design: Adobe Photoshop CC 2020","categoryId":1,"slug":"advanced-graphic-design-100","price":10.0000,"publishDate":"2020-04-14T09:56:21.258412Z","image":{"href":"/pictures/c100-12042020.png","rel":["file"]},"status":1,"shortSummary":"Noqo Graphic Desinger Dhamaystiran!","enrollments":490,"ratings":{"count":33,"stars":143.0},"filterables":[]},{"href":null,"id":18,"title":"Computer Application","categoryId":1,"slug":"computer-application-18","price":10.0000,"publishDate":"2020-01-28T19:13:16.308437Z","image":{"href":"/pictures/c18-25012020.png","rel":["file"]},"status":1,"shortSummary":"Ku baro Computer-ka hab fudud Goorkasta iyo Goobkasta kuna shaqo tag. ","enrollments":414,"ratings":{"count":32,"stars":116.0},"filterables":[]},{"href":null,"id":117,"title":"Adobe Premiere Pro CC: Learn Video Editing In Premiere Pro","categoryId":1,"slug":"adobe-premiere-pro-cc-learn-video-editing-in-premiere-pro-117","price":10.0000,"publishDate":"2020-05-11T13:35:17.065367Z","image":{"href":"/pictures/c117-06052020.png","rel":["file"]},"status":1,"shortSummary":"Ku soo Dhawoow Course Barashada Muuqal Samaynta ee Adobe Premiere Pro CC","enrollments":278,"ratings":{"count":16,"stars":64.0},"filterables":[]},{"href":null,"id":2,"title":"CCTV Cameras","categoryId":1,"slug":"cctv-cameras-2","price":10.0000,"publishDate":"2019-12-01T10:42:05.492652Z","image":{"href":"/pictures/c2-15112019.png","rel":["file"]},"status":1,"shortSummary":"Baro sida loo xidho, rakibo, maamulo, loo cilad saaro CCTV Camera.","enrollments":276,"ratings":{"count":29,"stars":132.0},"filterables":[]},{"href":null,"id":6,"title":"Computer Unlocking","categoryId":1,"slug":"computer-unlocking-6","price":10.0000,"publishDate":"2020-05-02T12:02:16.18265Z","image":{"href":"/pictures/c6-19112019.png","rel":["file"]},"status":1,"shortSummary":"Ku Soo Dhawoow Computer Unlocking","enrollments":270,"ratings":{"count":38,"stars":142.0},"filterables":[]},{"href":null,"id":170,"title":"The Complete WordPress Developer","categoryId":2,"slug":"the-complete-wordpress-developer-170","price":10.0000,"publishDate":"2020-09-07T07:33:43.943862Z","image":{"href":"/pictures/c170-06092020.png","rel":["file"]},"status":1,"shortSummary":"The Complete Wordpress Developer","enrollments":231,"ratings":{"count":13,"stars":47.0},"filterables":[]}],"count":0,"filterables":[]}